{
	"info": {
		"_postman_id": "890355e7-0bc1-47db-809e-dbaa798ab055",
		"name": "Medtro API v0.0.2 Documentation",
		"schema": "https://schema.getpostman.com/json/collection/v2.1.0/collection.json"
	},
	"item": [
		{
			"name": "api",
			"item": [
				{
					"name": "doctors",
					"item": [
						{
							"name": "Returns information on all doctors",
							"event": [
								{
									"listen": "test",
									"script": {
										"id": "35eff9a9-0adf-4e00-b3ac-5be0d6af8fb1",
										"exec": [
											"pm.test(\"Status code is 200\", function () {\r",
											"    pm.response.to.have.status(200);\r",
											"});\r",
											"\r",
											"pm.test(\"Response time is less than 200ms\", function () {\r",
											"    pm.expect(pm.response.responseTime).to.be.below(200);\r",
											"});"
										],
										"type": "text/javascript"
									}
								}
							],
							"request": {
								"method": "GET",
								"header": [],
								"url": {
									"raw": "{{baseUrl}}/api/doctors?page=1",
									"host": [
										"{{baseUrl}}"
									],
									"path": [
										"api",
										"doctors"
									],
									"query": [
										{
											"key": "page",
											"value": "1",
											"description": "(Required) The page of data to be queried"
										}
									]
								}
							},
							"response": [
								{
									"name": "Unexpected error",
									"originalRequest": {
										"method": "GET",
										"header": [],
										"url": {
											"raw": "{{baseUrl}}/api/doctors?page=<integer>",
											"host": [
												"{{baseUrl}}"
											],
											"path": [
												"api",
												"doctors"
											],
											"query": [
												{
													"key": "page",
													"value": "<integer>"
												}
											]
										}
									},
									"status": "Internal Server Error",
									"code": 500,
									"_postman_previewlanguage": "json",
									"header": [
										{
											"key": "Content-Type",
											"value": "application/json"
										}
									],
									"cookie": [],
									"body": "{\n \"code\": -50052068,\n \"message\": \"dolore id o\"\n}"
								},
								{
									"name": "Information on all doctors",
									"originalRequest": {
										"method": "GET",
										"header": [],
										"url": {
											"raw": "{{baseUrl}}/api/doctors?page=<integer>",
											"host": [
												"{{baseUrl}}"
											],
											"path": [
												"api",
												"doctors"
											],
											"query": [
												{
													"key": "page",
													"value": "<integer>"
												}
											]
										}
									},
									"status": "OK",
									"code": 200,
									"_postman_previewlanguage": "json",
									"header": [
										{
											"key": "x-next",
											"value": "tempor Lorem ut",
											"description": "A link to the next page of responses"
										},
										{
											"key": "Content-Type",
											"value": "application/json"
										}
									],
									"cookie": [],
									"body": "{\n \"npi_number\": -99229082,\n \"enumeration_type\": \"pariatur exercitation ipsum\",\n \"full_name\": \"sit minim tempor\",\n \"name\": \"e\",\n \"gender\": \"magna ea in et esse\",\n \"last_updated\": \"magna es\",\n \"address\": \"ut tempor dolore dolore eiusmod\",\n \"city\": \"dolore\",\n \"state\": \"pariatur nostrud\",\n \"zipcode\": true,\n \"phone_number\": \"minim proident velit\",\n \"fax_number\": \"proident non\",\n \"specialities\": \"exercitation deserunt \",\n \"doc_location\": []\n}"
								}
							]
						},
						{
							"name": "Returns information on a single doctor",
							"event": [
								{
									"listen": "test",
									"script": {
										"id": "60f52bb3-591a-43f4-bd9b-ce8a5b7b572a",
										"exec": [
											"pm.test(\"Status code is 200\", function () {\r",
											"    pm.response.to.have.status(400);\r",
											"});\r",
											"\r",
											"pm.test(\"Response time is less than 200ms\", function () {\r",
											"    pm.expect(pm.response.responseTime).to.be.below(200);\r",
											"});"
										],
										"type": "text/javascript"
									}
								}
							],
							"request": {
								"method": "GET",
								"header": [],
								"url": {
									"raw": "{{baseUrl}}/api/doctors/npi_number?npi_number=<integer>",
									"host": [
										"{{baseUrl}}"
									],
									"path": [
										"api",
										"doctors",
										"npi_number"
									],
									"query": [
										{
											"key": "npi_number",
											"value": "<integer>",
											"description": "(Required) "
										}
									]
								}
							},
							"response": [
								{
									"name": "Information on a single doctor",
									"originalRequest": {
										"method": "GET",
										"header": [],
										"url": {
											"raw": "{{baseUrl}}/api/doctors/npi_number?npi_number=<integer>",
											"host": [
												"{{baseUrl}}"
											],
											"path": [
												"api",
												"doctors",
												"npi_number"
											],
											"query": [
												{
													"key": "npi_number",
													"value": "<integer>"
												}
											]
										}
									},
									"status": "OK",
									"code": 200,
									"_postman_previewlanguage": "json",
									"header": [
										{
											"key": "x-next",
											"value": "tempor Lorem ut",
											"description": "A link to the next page of responses"
										},
										{
											"key": "Content-Type",
											"value": "application/json"
										}
									],
									"cookie": [],
									"body": "{\n \"npi_number\": -61336890,\n \"enumeration_type\": \"do elit\",\n \"full_name\": \"magna in conseq\",\n \"name\": \"nostrud aute voluptate\",\n \"gender\": \"mollit voluptate ut veniam nisi\",\n \"last_updated\": \"magna\",\n \"address\": \"ut laborum aliquip\",\n \"city\": \"qui Duis exercitation\",\n \"state\": \"aute ipsum\",\n \"zipcode\": false,\n \"phone_number\": \"commodo\",\n \"fax_number\": \"aute ad Ut\",\n \"specialities\": \"Ut fugi\",\n \"doc_location\": []\n}"
								},
								{
									"name": "Unexpected error",
									"originalRequest": {
										"method": "GET",
										"header": [],
										"url": {
											"raw": "{{baseUrl}}/api/doctors/npi_number?npi_number=<integer>",
											"host": [
												"{{baseUrl}}"
											],
											"path": [
												"api",
												"doctors",
												"npi_number"
											],
											"query": [
												{
													"key": "npi_number",
													"value": "<integer>"
												}
											]
										}
									},
									"status": "Internal Server Error",
									"code": 500,
									"_postman_previewlanguage": "json",
									"header": [
										{
											"key": "Content-Type",
											"value": "application/json"
										}
									],
									"cookie": [],
									"body": "{\n \"code\": -50052068,\n \"message\": \"dolore id o\"\n}"
								}
							]
						}
					],
					"protocolProfileBehavior": {},
					"_postman_isSubFolder": true
				},
				{
					"name": "aux services",
					"item": [
						{
							"name": "Returns information on all auxiliary healthcare services",
							"event": [
								{
									"listen": "test",
									"script": {
										"id": "d9862431-27be-4db4-8bab-7b0f83c4a5de",
										"exec": [
											"pm.test(\"Status code is 200\", function () {\r",
											"    pm.response.to.have.status(200);\r",
											"});\r",
											"\r",
											"pm.test(\"Response time is less than 200ms\", function () {\r",
											"    pm.expect(pm.response.responseTime).to.be.below(200);\r",
											"});"
										],
										"type": "text/javascript"
									}
								}
							],
							"request": {
								"method": "GET",
								"header": [],
								"url": {
									"raw": "{{baseUrl}}/api/aux_services?page=1",
									"host": [
										"{{baseUrl}}"
									],
									"path": [
										"api",
										"aux_services"
									],
									"query": [
										{
											"key": "page",
											"value": "1",
											"description": "(Required) The page of data to be queried"
										}
									]
								}
							},
							"response": [
								{
									"name": "Unexpected error",
									"originalRequest": {
										"method": "GET",
										"header": [],
										"url": {
											"raw": "{{baseUrl}}/api/aux_services?page=<integer>",
											"host": [
												"{{baseUrl}}"
											],
											"path": [
												"api",
												"aux_services"
											],
											"query": [
												{
													"key": "page",
													"value": "<integer>"
												}
											]
										}
									},
									"status": "Internal Server Error",
									"code": 500,
									"_postman_previewlanguage": "json",
									"header": [
										{
											"key": "Content-Type",
											"value": "application/json"
										}
									],
									"cookie": [],
									"body": "{\n \"code\": -50052068,\n \"message\": \"dolore id o\"\n}"
								},
								{
									"name": "Information on all auxiliary healthcare services",
									"originalRequest": {
										"method": "GET",
										"header": [],
										"url": {
											"raw": "{{baseUrl}}/api/aux_services?page=<integer>",
											"host": [
												"{{baseUrl}}"
											],
											"path": [
												"api",
												"aux_services"
											],
											"query": [
												{
													"key": "page",
													"value": "<integer>"
												}
											]
										}
									},
									"status": "OK",
									"code": 200,
									"_postman_previewlanguage": "json",
									"header": [
										{
											"key": "x-next",
											"value": "tempor Lorem ut",
											"description": "A link to the next page of responses"
										},
										{
											"key": "Content-Type",
											"value": "application/json"
										}
									],
									"cookie": [],
									"body": "{\n \"id\": -11367870,\n \"company_name\": \"aliquip nisi\",\n \"address\": \"labore ullamco ipsum\",\n \"city\": \"id irure quis deserunt\",\n \"state\": \"id eiu\",\n \"zipcode\": \"nulla adipisicing non\",\n \"phone\": \"sed mollit do\",\n \"product\": \"dolore Excepteur reprehenderit eiusmod magna\",\n \"image\": \"labor\",\n \"aux_location\": []\n}"
								}
							]
						},
						{
							"name": "Returns information on a single auxiliary healthcare services",
							"event": [
								{
									"listen": "test",
									"script": {
										"id": "5ddc4b9c-e771-4497-a907-d4e5739ae6b0",
										"exec": [
											"pm.test(\"Status code is 200\", function () {\r",
											"    pm.response.to.have.status(400);\r",
											"});\r",
											"\r",
											"pm.test(\"Response time is less than 200ms\", function () {\r",
											"    pm.expect(pm.response.responseTime).to.be.below(200);\r",
											"});"
										],
										"type": "text/javascript"
									}
								}
							],
							"request": {
								"method": "GET",
								"header": [],
								"url": {
									"raw": "{{baseUrl}}/api/aux_services/id_number?id_number=<integer>",
									"host": [
										"{{baseUrl}}"
									],
									"path": [
										"api",
										"aux_services",
										"id_number"
									],
									"query": [
										{
											"key": "id_number",
											"value": "<integer>",
											"description": "(Required) "
										}
									]
								}
							},
							"response": [
								{
									"name": "Information on a single auxiliary healthcare services",
									"originalRequest": {
										"method": "GET",
										"header": [],
										"url": {
											"raw": "{{baseUrl}}/api/aux_services/id_number?id_number=<integer>",
											"host": [
												"{{baseUrl}}"
											],
											"path": [
												"api",
												"aux_services",
												"id_number"
											],
											"query": [
												{
													"key": "id_number",
													"value": "<integer>"
												}
											]
										}
									},
									"status": "OK",
									"code": 200,
									"_postman_previewlanguage": "json",
									"header": [
										{
											"key": "x-next",
											"value": "tempor Lorem ut",
											"description": "A link to the next page of responses"
										},
										{
											"key": "Content-Type",
											"value": "application/json"
										}
									],
									"cookie": [],
									"body": "{\n \"id\": 83127039,\n \"company_name\": \"veniam aliquip\",\n \"address\": \"laboris sunt dolor laborum incididunt\",\n \"city\": \"a\",\n \"state\": \"dolor\",\n \"zipcode\": \"id\",\n \"phone\": \"amet laboris nulla pariatur\",\n \"product\": \"in\",\n \"image\": \"adipisicing in aute\",\n \"aux_location\": []\n}"
								},
								{
									"name": "Unexpected error",
									"originalRequest": {
										"method": "GET",
										"header": [],
										"url": {
											"raw": "{{baseUrl}}/api/aux_services/id_number?id_number=<integer>",
											"host": [
												"{{baseUrl}}"
											],
											"path": [
												"api",
												"aux_services",
												"id_number"
											],
											"query": [
												{
													"key": "id_number",
													"value": "<integer>"
												}
											]
										}
									},
									"status": "Internal Server Error",
									"code": 500,
									"_postman_previewlanguage": "json",
									"header": [
										{
											"key": "Content-Type",
											"value": "application/json"
										}
									],
									"cookie": [],
									"body": "{\n \"code\": -50052068,\n \"message\": \"dolore id o\"\n}"
								}
							]
						}
					],
					"protocolProfileBehavior": {},
					"_postman_isSubFolder": true
				},
				{
					"name": "transit",
					"item": [
						{
							"name": "Returns information on transit routes",
							"event": [
								{
									"listen": "test",
									"script": {
										"id": "946c4fa0-51cc-4c8a-8494-3416ad46c245",
										"exec": [
											"pm.test(\"Status code is 200\", function () {\r",
											"    pm.response.to.have.status(200);\r",
											"});\r",
											"\r",
											"pm.test(\"Response time is less than 200ms\", function () {\r",
											"    pm.expect(pm.response.responseTime).to.be.below(200);\r",
											"});"
										],
										"type": "text/javascript"
									}
								}
							],
							"request": {
								"method": "GET",
								"header": [],
								"url": {
									"raw": "{{baseUrl}}/api/transit?page=1",
									"host": [
										"{{baseUrl}}"
									],
									"path": [
										"api",
										"transit"
									],
									"query": [
										{
											"key": "page",
											"value": "1",
											"description": "(Required) The page of data to be queried"
										}
									]
								}
							},
							"response": [
								{
									"name": "Unexpected error",
									"originalRequest": {
										"method": "GET",
										"header": [],
										"url": {
											"raw": "{{baseUrl}}/api/transit?page=1",
											"host": [
												"{{baseUrl}}"
											],
											"path": [
												"api",
												"transit"
											],
											"query": [
												{
													"key": "page",
													"value": "1"
												}
											]
										}
									},
									"_postman_previewlanguage": null,
									"header": null,
									"cookie": [],
									"body": "{\r\n \"code\": -50052068,\r\n \"message\": \"dolore id o\"\r\n}"
								},
								{
									"name": "Information on transit connections",
									"originalRequest": {
										"method": "GET",
										"header": [],
										"url": {
											"raw": "{{baseUrl}}/api/transit?page=1",
											"host": [
												"{{baseUrl}}"
											],
											"path": [
												"api",
												"transit"
											],
											"query": [
												{
													"key": "page",
													"value": "1"
												}
											]
										}
									},
									"_postman_previewlanguage": null,
									"header": null,
									"cookie": [],
									"body": " {\r\n      \"aux_city\": \"Houston\", \r\n      \"aux_latitude\": \"29.6680463\", \r\n      \"aux_longitude\": \"-95.4138365\", \r\n      \"aux_service_id\": 92, \r\n      \"doctor_city\": \"Houston\", \r\n      \"doctor_id\": 1174515282, \r\n      \"doctor_latitude\": \"29.7139814\", \r\n      \"doctor_longitude\": \"-95.3982908\", \r\n      \"id\": 1\r\n    }"
								}
							]
						}
					],
					"protocolProfileBehavior": {},
					"_postman_isSubFolder": true
				}
			],
			"protocolProfileBehavior": {}
		}
	],
	"variable": [
		{
			"id": "c8e5dfab-3b61-4a57-8286-e58093b2108a",
			"key": "baseUrl",
			"value": "https://www.mymedtro.com",
			"type": "string"
		}
	],
	"protocolProfileBehavior": {}
}